\BOOKMARK [1][-]{section.1}{Image reading and display}{}
\BOOKMARK [1][-]{section.2}{Verifying Convolution is indeed associative}{}
\BOOKMARK [1][-]{section.3}{Image gradient}{}
\BOOKMARK [1][-]{section.4}{How images change when smoothed}{}
