\relax 
\ifx\hyper@anchor\@undefined
\global \let \oldcontentsline\contentsline
\gdef \contentsline#1#2#3#4{\oldcontentsline{#1}{#2}{#3}}
\global \let \oldnewlabel\newlabel
\gdef \newlabel#1#2{\newlabelxx{#1}#2}
\gdef \newlabelxx#1#2#3#4#5#6{\oldnewlabel{#1}{{#2}{#3}}}
\AtEndDocument{\let \contentsline\oldcontentsline
\let \newlabel\oldnewlabel}
\else
\global \let \hyper@last\relax 
\fi

\@writefile{toc}{\contentsline {section}{\numberline {1}Image reading and display}{1}{section.1}}
\providecommand*\caption@xref[2]{\@setref\relax\@undefined{#1}}
\newlabel{fig:p1_test_crop}{{1a}{1}{Crop test image\relax \relax }{figure.caption.1}{}}
\newlabel{sub@fig:p1_test_crop}{{a}{1}{Crop test image\relax \relax }{figure.caption.1}{}}
\newlabel{fig:p1_test_after_crop}{{1b}{1}{Cropped test image\relax \relax }{figure.caption.1}{}}
\newlabel{sub@fig:p1_test_after_crop}{{b}{1}{Cropped test image\relax \relax }{figure.caption.1}{}}
\@writefile{lof}{\contentsline {figure}{\numberline {1}{\ignorespaces Pictures of test script results\relax }}{1}{figure.caption.1}}
\@writefile{toc}{\contentsline {section}{\numberline {2}Verifying Convolution is indeed associative}{2}{section.2}}
\@writefile{toc}{\contentsline {section}{\numberline {3}Image gradient}{3}{section.3}}
\newlabel{fig:p3_all}{{\caption@xref {fig:p3_all}{ on input line 124}}{3}{Image gradient\relax }{figure.caption.2}{}}
\@writefile{lof}{\contentsline {figure}{\numberline {2}{\ignorespaces A comparison off all the results in problem 3\relax }}{3}{figure.caption.2}}
\@writefile{toc}{\contentsline {section}{\numberline {4}How images change when smoothed}{4}{section.4}}
\newlabel{fig:p4_all}{{\caption@xref {fig:p4_all}{ on input line 178}}{4}{How images change when smoothed\relax }{figure.caption.3}{}}
\@writefile{lof}{\contentsline {figure}{\numberline {3}{\ignorespaces A comparison off all the results in problem 4\relax }}{4}{figure.caption.3}}
